Kode Kecamatan,Kecamatan,Kode Kelurahan,Kelurahan,Lokasi RTH,Jenis RTH,Luas RTH (m2)
32.73.12,Batununggal,32.73.12.1005,Kebon Waru,Taman Asia Afrika Jl. Jakarta ,Taman,132000
32.73.12,Batununggal,32.73.12.1005,Kebon Waru,RW 04,Taman Anyer,-
32.73.12,Batununggal,32.73.12.1005,Kebon Waru,RW 08 ,Taman Kiara Park ,-
32.73.12,Batununggal,32.73.12.1004,Kacapiring,RW 08 ,Taman RW ,-
32.73.12,Batununggal,32.73.12.1004,Kacapiring,Lapangan Sidolig,Sarana Olahraga,-
32.73.12,Batununggal,32.73.12.1004,Kacapiring,Lahan PJKA Jl. Sukabumi - Jl. Laswi,-,-
32.73.12,Batununggal,32.73.12.1001,Gumuruh,RT 09 RW 06 ,Taman Herbal Hejo ,-
32.73.12,Batununggal,32.73.12.1001,Gumuruh,RT 07 RW 05 ,Taman Siwal ,-
32.73.12,Batununggal,32.73.12.1001,Gumuruh,TPU Gumuruh,Pemakaman,-
32.73.12,Batununggal,32.73.12.1002,Maleer,RW 03,Taman RW ,-
32.73.12,Batununggal,32.73.12.1002,Maleer,TPU Maleer,Pemakaman,-
32.73.12,Batununggal,32.73.12.1006,Kebon Gedang,Jl. Ibrahim Aji ,Taman Fly Over Ibrahim Ajie ,-
32.73.12,Batununggal,32.73.12.1006,Kebon Gedang,RW 02 RW 03 ,Taman RW ,-
32.73.12,Batununggal,32.73.12.1008,Binong,RW 01 Jl. Gatot Subroto ,Taman RW ,-
32.73.12,Batununggal,32.73.12.1008,Binong,RW 07 Jl. Binongjati ,Taman RW ,-
32.73.12,Batununggal,32.73.12.1008,Binong,RW 10,Taman RW ,-
32.73.12,Batununggal,32.73.12.1007,Samoja,RT 07 RW 07 ,Taman RW ,-
32.73.12,Batununggal,32.73.12.1003,Cibangkong,RW 05,Taman RW ,-
32.73.12,Batununggal,32.73.12.1003,Cibangkong,RT 05 RW 01,Taman RW ,-